Point,Description
1,close to door 3
27,first door of room 2A211
28,second door of room 2A211
14,men's wahsroom
12,women's washroom
13,water fountain
20,2A205
22,2A207
21,2A206
23,2A208
26,2A209; 2A210 Conestoga Assessment Centre
26,2A210 Conestoga Assessment Centre
29,ATM
33,Tim Hortons
34,Inside Tim Hortons
38,2A101
41,Inside 2A101
42,Inside 2A211
43,Inside 2A211
44,Inside 2A211
45,Inside 2A211
