From,To,Weight
1,2,3
1,29,3
2,3,3
3,4,3
4,5,3
5,6,3
6,7,4.5
7,8,4.5
7,15,4.2
8,9,3
9,10,3.2
10,11,3
11,12,3
12,13,3
13,14,3
14,13,3
15,16,3
16,17,3
17,18,3
18,19,4.5
19,20,4.5
20,21,3
21,22,4
22,23,4.4
23,24,3
24,25,3
25,26,3
26,27,2.3
27,28,4.7
27,42,3
28,27,4.7
27,26,2.3
26,25,3
25,24,3
24,23,3
23,22,4.4
22,21,4
21,20,3
20,19,4.5
19,18,4.5
18,17,3
17,16,3
16,15,3
15,7,4.2
13,12,3
12,11,3
11,10,3
10,9,3.2
9,8,3
8,7,4.5
7,6,4.5
6,5,3
5,4,3
4,3,3
3,2,3
2,1,3
29,30,3
29,1,
30,31,3
30,29,
31,30,
31,32,3
32,33,3
32,31,
33,34,3
33,35,
33,32,
34,33,
35,33,
35,36,
36,35,
36,37,
37,36,
37,38,
37,40,
38,39,
38,41,
38,37,
39,38,
39,40,
40,39,
40,37,
41,38,
42,27,
43,28,
43,45,
44,45,
45,43,
45,44,
43,42,
42,43,
