<?xml version="1.0" encoding="UTF-8"?>
<!DOCTYPE svg PUBLIC "-//W3C//DTD SVG 1.1//EN" "http://www.w3.org/Graphics/SVG/1.1/DTD/svg11.dtd">
<!-- Creator: CorelDRAW X6 -->
<svg xmlns="http://www.w3.org/2000/svg" xml:space="preserve" width="800px" height="872px" version="1.1" style="shape-rendering:geometricPrecision; text-rendering:geometricPrecision; image-rendering:optimizeQuality; fill-rule:evenodd; clip-rule:evenodd"
viewBox="0 0 771 841"
 xmlns:xlink="http://www.w3.org/1999/xlink">
 <g id="Camada_x0020_1" stroke = "#000" stroke-width = "1" fill = "none">
  <rect class="fil0 str0" x="209" y="1" width="55" height="106"/>
  <rect class="fil0 str0" x="264" y="1" width="63" height="39"/>
  <polygon class="fil0 str0" points="446,76 414,76 414,70 375,70 375,76 352,76 352,126 446,126 "/>
  <polygon class="fil0 str0" points="446,76 446,64 455,64 455,76 490,76 495,109 495,126 446,126 "/>
  <polygon class="fil0 str0" points="453,168 495,168 495,126 453,126 "/>
  <polygon class="fil0 str0" points="453,168 495,168 495,194 453,194 "/>
  <polygon class="fil0 str0" points="453,239 495,239 495,201 453,201 "/>
  <polygon class="fil0 str0" points="453,239 495,239 495,274 453,274 "/>
  <polygon class="fil0 str0" points="695,127 495,127 495,274 584,274 586,277 692,277 695,270 "/>
  <polygon class="fil0 str0" points="695,127 770,127 770,271 695,271 "/>
  <polygon class="fil0 str0" points="728,209 770,209 770,271 728,271 "/>
  <polygon class="fil0 str0" points="719,338 719,350 770,350 770,290 714,290 714,296 718,296 718,307 714,307 714,332 "/>
  <polygon class="fil0 str0" points="695,338 695,350 644,350 644,290 700,290 700,296 695,296 695,307 700,307 700,332 "/>
  <polygon class="fil0 str0" points="592,338 592,350 644,350 644,290 587,290 587,296 591,296 591,307 587,307 587,332 "/>
  <polygon class="fil0 str0" points="719,361 719,350 770,350 770,406 719,406 719,396 714,391 714,367 "/>
  <polygon class="fil0 str0" points="695,361 695,350 644,350 644,406 695,406 695,396 700,391 700,367 "/>
  <polygon class="fil0 str0" points="592,361 592,350 644,350 644,406 592,406 592,396 587,391 587,367 "/>
  <polygon class="fil0 str0" points="770,446 770,406 719,406 719,415 714,420 714,446 "/>
  <polygon class="fil0 str0" points="644,443 644,406 695,406 695,415 700,420 700,443 "/>
  <polygon class="fil0 str0" points="644,459 644,406 592,406 592,415 587,420 587,449 592,453 592,464 623,464 623,459 "/>
  <polygon class="fil0 str0" points="382,145 403,145 403,126 382,126 "/>
  <polygon class="fil0 str0" points="366,145 403,145 403,190 366,190 "/>
  <polygon class="fil0 str0" points="445,126 403,126 403,190 445,190 "/>
  <polygon class="fil0 str0" points="445,235 404,235 402,238 396,238 396,190 445,190 "/>
  <polygon class="fil0 str0" points="445,235 404,235 402,238 402,275 445,275 "/>
  <polygon class="fil0 str0" points="353,275 402,275 402,238 396,238 396,190 366,190 366,236 353,236 "/>
  <polygon class="fil0 str0" points="366,219 352,219 352,145 352,126 382,126 382,145 366,145 "/>
  <polygon class="fil0 str0" points="366,219 352,219 352,236 366,236 "/>
  <polygon class="fil0 str0" points="209,147 264,147 264,107 209,107 "/>
  <polygon class="fil0 str0" points="209,147 229,147 229,163 209,163 "/>
  <polygon class="fil0 str0" points="209,179 229,179 229,163 209,163 "/>
  <polygon class="fil0 str0" points="275,172 229,172 229,147 275,147 "/>
  <polygon class="fil0 str0" points="275,172 242,172 242,192 275,192 "/>
  <polygon class="fil0 str0" points="275,210 242,210 242,192 275,192 "/>
  <polygon class="fil0 str0" points="209,210 234,210 234,193 209,193 "/>
  <polygon class="fil0 str0" points="209,210 234,210 234,224 209,224 "/>
  <polygon class="fil0 str0" points="209,147 275,147 275,267 265,275 209,275 "/>
  <polygon class="fil0 str0" points="353,147 288,147 288,266 297,275 353,275 "/>
  <polygon class="fil0 str0" points="209,339 273,339 273,300 263,291 209,291 "/>
  <polygon class="fil0 str0" points="352,339 288,339 288,302 299,291 352,291 "/>
  <polygon class="fil0 str0" points="352,341 415,341 415,291 352,291 "/>
  <polygon class="fil0 str0" points="498,341 431,341 431,291 498,291 "/>
  <polygon class="fil0 str0" points="498,341 431,341 431,433 498,433 "/>
  <polygon class="fil0 str0" points="498,480 431,480 431,433 498,433 "/>
  <polygon class="fil0 str0" points="498,480 431,480 431,527 498,527 "/>
  <polygon class="fil0 str0" points="352,341 415,341 415,385 352,385 "/>
  <polygon class="fil0 str0" points="352,434 415,434 415,385 352,385 "/>
  <polygon class="fil0 str0" points="352,434 415,434 415,475 352,475 "/>
  <polygon class="fil0 str0" points="352,526 415,526 415,475 352,475 "/>
  <polygon class="fil0 str0" points="352,339 288,339 288,392 352,392 "/>
  <polygon class="fil0 str0" points="352,433 288,433 288,392 352,392 "/>
  <polygon class="fil0 str0" points="352,433 288,433 288,476 352,476 "/>
  <polygon class="fil0 str0" points="352,527 296,527 288,520 288,476 352,476 "/>
  <polygon class="fil0 str0" points="352,544 297,544 288,554 288,583 352,583 "/>
  <polygon class="fil0 str0" points="352,544 407,544 417,554 417,583 352,583 "/>
  <polygon class="fil0 str0" points="496,621 441,621 431,611 431,583 431,554 441,544 496,544 496,583 "/>
  <polygon class="fil0 str0" points="496,621 557,621 557,544 496,544 496,583 "/>
  <polygon class="fil0 str0" points="557,621 612,621 622,611 622,583 622,554 612,544 557,544 557,583 "/>
  <polygon class="fil0 str0" points="352,621 297,621 288,611 288,583 352,583 "/>
  <polygon class="fil0 str0" points="352,621 407,621 417,611 417,583 352,583 "/>
  <polygon class="fil0 str0" points="209,339 273,339 273,386 209,386 "/>
  <polygon class="fil0 str0" points="209,433 273,433 273,386 209,386 "/>
  <polygon class="fil0 str0" points="209,433 273,433 273,481 209,481 "/>
  <polygon class="fil0 str0" points="209,527 266,527 273,520 273,481 209,481 "/>
  <polygon class="fil0 str0" points="209,544 266,544 273,553 273,567 209,567 "/>
  <polygon class="fil0 str0" points="209,621 266,621 273,614 273,567 209,567 "/>
  <polygon class="fil0 str0" points="512,291 571,291 571,327 512,327 "/>
  <polygon class="fil0 str0" points="512,360 571,360 571,327 512,327 "/>
  <polygon class="fil0 str0" points="512,360 571,360 571,394 512,394 "/>
  <polygon class="fil0 str0" points="512,428 571,428 571,394 512,394 "/>
  <polygon class="fil0 str0" points="512,428 571,428 571,461 512,461 "/>
  <polygon class="fil0 str0" points="512,527 561,527 561,480 512,480 "/>
  <polygon class="fil0 str0" points="621,527 561,527 561,480 621,480 "/>
  <polygon class="fil0 str0" points="636,527 700,527 700,480 636,480 "/>
  <polygon class="fil0 str0" points="730,511 699,511 699,480 730,480 "/>
  <polygon class="fil0 str0" points="739,528 771,528 771,480 739,480 "/>
  <polygon class="fil0 str0" points="739,528 771,528 771,577 739,577 "/>
  <polygon class="fil0 str0" points="739,624 771,624 771,577 739,577 "/>
  <polygon class="fil0 str0" points="739,624 771,624 771,655 739,655 "/>
  <polygon class="fil0 str0" points="717,687 771,687 771,655 717,655 "/>
  <polygon class="fil0 str0" points="700,687 681,687 681,639 700,639 "/>
  <polygon class="fil0 str0" points="637,687 681,687 681,639 637,639 "/>
  <polygon class="fil0 str0" points="637,687 589,687 589,639 637,639 "/>
  <polygon class="fil0 str0" points="542,687 589,687 589,639 542,639 "/>
  <polygon class="fil0 str0" points="542,687 494,687 494,639 542,639 "/>
  <polygon class="fil0 str0" points="400,687 446,687 446,647 400,647 "/>
  <polygon class="fil0 str0" points="400,687 368,687 368,647 400,647 "/>
  <polygon class="fil0 str0" points="352,687 368,687 368,647 352,647 "/>
  <polygon class="fil0 str0" points="352,767 447,767 447,726 352,726 "/>
  <polygon class="fil0 str0" points="305,749 256,749 256,724 305,724 "/>
  <polygon class="fil0 str0" points="126,768 246,768 246,724 146,724 126,744 "/>
  <polygon class="fil0 str0" points="305,740 321,740 321,724 305,724 "/>
  <polygon class="fil0 str0" points="305,740 321,740 321,758 305,758 "/>
  <polygon class="fil0 str0" points="336,738 321,738 321,724 336,724 "/>
  <polygon class="fil0 str0" points="336,738 321,738 321,748 336,748 "/>
  <polygon class="fil0 str0" points="336,758 321,758 321,748 336,748 "/>
  <polygon class="fil0 str0" points="305,749 256,749 256,767 305,767 "/>
  <polygon class="fil0 str0" points="525,767 454,767 454,726 503,726 503,719 525,719 "/>
  <polygon class="fil0 str0" points="525,767 422,767 422,830 525,830 "/>
  <polygon class="fil0 str0" points="404,779 422,779 422,837 404,837 "/>
  <polygon class="fil0 str0" points="404,779 354,779 354,830 404,830 "/>
  <polygon class="fil0 str0" points="274,779 354,779 354,830 274,830 "/>
  <polygon class="fil0 str0" points="274,779 172,779 172,830 274,830 "/>
  <polygon class="fil0 str0" points="130,779 172,779 172,830 130,830 "/>
  <polygon class="fil0 str0" points="130,779 104,779 104,830 130,830 "/>
  <polygon class="fil0 str0" points="54,813 36,795 15,816 15,820 54,820 "/>
  <polygon class="fil0 str0" points="34,837 27,837 27,834 15,834 15,820 34,820 "/>
  <polygon class="fil0 str0" points="34,837 53,837 53,820 34,820 "/>
  <polygon class="fil0 str0" points="310,661 297,661 297,647 310,647 "/>
  <polygon class="fil0 str0" points="256,661 278,661 278,647 256,647 "/>
  <polygon class="fil0 str0" points="256,661 224,661 224,647 256,647 "/>
  <polygon class="fil0 str0" points="256,661 209,661 209,687 256,687 "/>
  <polygon class="fil0 str0" points="229,708 209,708 209,687 229,687 "/>
  <polygon class="fil0 str0" points="229,708 272,708 272,687 229,687 "/>
  <polygon class="fil0 str0" points="337,708 287,708 287,687 337,687 "/>
  <polygon class="fil0 str0" points="336,661 310,661 310,647 336,647 "/>
  <polygon class="fil0 str0" points="336,661 297,661 297,682 336,682 "/>
  <polygon class="fil0 str0" points="446,687 494,687 494,639 455,639 446,647 "/>
  <polygon class="fil0 str0" points="636,527 700,527 700,576 636,576 "/>
  <polygon class="fil0 str0" points="636,622 674,622 674,576 636,576 "/>
  <polygon class="fil0 str0" points="699,622 674,622 674,576 699,576 "/>
  <polygon class="fil0 str0" points="699,622 732,622 732,591 699,591 "/>
  <polygon class="fil0 str0" points="717,622 732,622 732,634 717,634 "/>
  <polygon class="fil0 str0" points="717,646 732,646 732,634 717,634 "/>
  <polygon class="fil0 str0" points="699,572 732,572 732,591 699,591 "/>
  <polygon class="fil0 str0" points="699,572 732,572 732,542 699,542 "/>
  <polygon class="fil0 str0" points="699,512 732,512 732,542 699,542 "/>
  <polygon class="fil0 str0" points="4,752 138,616 165,642 164,675 60,781 21,781 6,796 4,795 "/>
  <polygon class="fil0 str0" points="4,752 18,738 60,781 21,781 6,796 4,795 "/>
  <polygon class="fil0 str0" points="32,753 53,731 81,759 60,781 "/>
  <polygon class="fil0 str0" points="18,738 39,717 53,731 32,753 "/>
  <polygon class="fil0 str0" points="53,703 39,717 51,729 61,719 60,711 "/>
  <polygon class="fil0 str0" points="53,703 72,683 85,697 72,711 60,711 "/>
  <polygon class="fil0 str0" points="90,665 72,683 115,725 132,707 "/>
  <polygon class="fil0 str0" points="90,665 138,616 165,642 164,675 132,707 "/>
  <polygon class="fil0 str0" points="76,706 85,697 97,708 88,718 77,719 "/>
  <polygon class="fil0 str0" points="93,747 115,725 97,708 88,718 87,741 "/>
  <polygon class="fil0 str0" points="93,747 81,759 70,749 79,741 87,741 "/>
  <polygon class="fil0 str0" points="71,724 58,736 70,749 79,741 79,733 "/>
  <rect class="fil0 str0" x="674" y="779" width="26" height="48"/>
 </g>
</svg>
