<?xml version="1.0" encoding="UTF-8"?>
<!DOCTYPE svg PUBLIC "-//W3C//DTD SVG 1.1//EN" "http://www.w3.org/Graphics/SVG/1.1/DTD/svg11.dtd">
<!-- Creator: CorelDRAW X6 -->
<svg xmlns="http://www.w3.org/2000/svg" xml:space="preserve" width="800px" height="871px" version="1.1" style="shape-rendering:geometricPrecision; text-rendering:geometricPrecision; image-rendering:optimizeQuality; fill-rule:evenodd; clip-rule:evenodd"
viewBox="0 0 774 843"
 xmlns:xlink="http://www.w3.org/1999/xlink">
 <defs>
  <style type="text/css">
   <![CDATA[
    .str1 {stroke:#373435;stroke-width:0.426427}
    .str0 {stroke:#373435;stroke-width:0.426427}
    .str2 {stroke:#ED3237;stroke-width:1.11923}
    .fil1 {fill:none}
    .fil2 {fill:none;fill-rule:nonzero}
    .fil0 {fill:#373435;fill-rule:nonzero}
   ]]>
  </style>
 </defs>
 <g id="Camada_x0020_1">
  <metadata id="CorelCorpID_0Corel-Layer"/>
  <g>
   <path class="fil0" d="M263 1l-56 0 0 0 56 0 0 0 0 0zm0 0l0 0 0 0 0 0zm0 107l0 -106 0 0 0 106 0 0 0 0zm0 0l0 0 0 0 0 0zm-56 0l56 0 0 0 -56 0 0 0 0 0zm0 0l0 0 0 0 0 0zm0 -107l0 106 0 0 0 -106 0 0 0 0zm0 0l0 0 0 0 0 0z"/>
  </g>
  <g>
   <path class="fil0" d="M263 1l0 0 0 0 63 0 0 0 -63 0zm0 0l0 0 0 0 0 0zm0 39l0 0 0 0 0 -39 0 0 0 39zm0 0l0 0 0 0 0 0zm63 0l0 0 0 0 -63 0 0 0 63 0zm0 0l0 0 0 0 0 0zm0 -39l0 0 0 0 0 39 0 0 0 -39zm0 0l0 0 0 0 0 0z"/>
  </g>
  <polygon class="fil1 str0" points="446,76 414,76 414,70 375,70 375,76 352,76 352,126 446,126 "/>
  <polygon class="fil1 str0" points="446,76 446,64 455,64 455,76 491,76 496,109 496,126 446,126 "/>
  <polygon class="fil1 str0" points="454,168 496,168 496,126 454,126 "/>
  <polygon class="fil1 str0" points="454,168 496,168 496,195 454,195 "/>
  <polygon class="fil1 str0" points="454,240 496,240 496,202 454,202 "/>
  <polygon class="fil1 str0" points="454,240 496,240 496,275 454,275 "/>
  <polygon class="fil1 str0" points="698,127 496,127 496,275 585,275 588,279 695,279 698,272 "/>
  <polygon class="fil1 str0" points="698,127 773,127 773,272 698,272 "/>
  <polygon class="fil1 str0" points="731,210 773,210 773,272 731,272 "/>
  <polygon class="fil1 str0" points="722,340 722,352 773,352 773,291 716,291 716,298 721,298 721,308 716,308 716,334 "/>
  <g>
   <path class="fil0" d="M697 352l0 0 0 0 0 -11 0 0 0 11zm0 0l0 0 0 0 0 0zm-51 0l0 0 0 0 51 0 0 0 -51 0zm0 0l0 0 0 0 0 0zm0 -60l0 0 0 0 0 60 0 0 0 -60zm0 0l0 0 0 0 0 0zm56 0l0 0 0 0 -56 0 0 0 56 0zm0 0l0 0 0 0 0 0zm0 7l0 0 0 0 0 -6 0 0 0 6zm0 0l0 0 0 0 0 0zm-5 0l0 0 0 0 5 0 0 0 -5 0zm0 0l0 0 0 0 0 0zm0 10l0 0 0 0 0 -10 0 0 0 10zm0 0l0 0 0 0 0 0zm5 0l0 0 0 0 -5 0 0 0 5 0zm0 0l0 0 0 0 0 0zm0 26l0 0 0 0 0 -26 0 0 0 26zm0 0l0 0 0 0 0 0zm-5 6l0 0 0 0 5 -6 0 0 -5 6zm0 0l0 0 0 0 0 0z"/>
  </g>
  <g>
   <path class="fil0" d="M593 352l0 -11 0 0 0 11 0 0 0 0zm0 0l0 0 0 0 0 0zm52 0l-52 0 0 0 52 0 0 0 0 0zm0 0l0 0 0 0 0 0zm0 -60l0 60 0 0 0 -60 0 0 0 0zm0 0l0 0 0 0 0 0zm-58 0l58 0 0 0 -58 0 0 0 0 0zm0 0l0 0 0 0 0 0zm0 6l0 -6 0 0 0 6 0 0 0 0zm0 0l0 0 0 0 0 0zm5 0l-5 0 0 0 5 0 0 0 0 0zm0 0l0 0 0 0 0 0zm0 10l0 -10 0 0 0 10 0 0 0 0zm0 0l0 0 0 0 0 0zm-5 0l5 0 0 0 -5 0 0 0 0 0zm0 0l0 0 0 0 0 0zm0 26l0 -26 0 0 0 26 0 0 0 0zm0 0l0 0 0 0 0 0zm5 6l-5 -6 0 0 5 6 0 0 0 0zm0 0l0 0 0 0 0 0z"/>
  </g>
  <polygon class="fil1 str0" points="722,363 722,352 773,352 773,408 721,408 721,398 716,393 716,369 "/>
  <g>
   <path class="fil0" d="M697 352l0 11 0 0 0 -11 0 0 0 0zm0 0l0 0 0 0 0 0zm-51 0l51 0 0 0 -51 0 0 0 0 0zm0 0l0 0 0 0 0 0zm0 56l0 -56 0 0 0 56 0 0 0 0zm0 0l0 0 0 0 0 0zm51 0l-51 0 0 0 51 0 0 0 0 0zm0 0l0 0 0 0 0 0zm0 -10l0 10 0 0 0 -10 0 0 0 0zm0 0l0 0 0 0 0 0zm5 -4l-5 4 0 0 5 -4 0 0 0 0zm0 0l0 0 0 0 0 0zm0 -24l0 24 0 0 0 -24 0 0 0 0zm0 0l0 0 0 0 0 0zm-5 -6l5 6 0 0 -5 -6 0 0 0 0zm0 0l0 0 0 0 0 0z"/>
  </g>
  <g>
   <path class="fil0" d="M593 352l0 0 0 0 0 11 0 0 0 -11zm0 0l0 0 0 0 0 0zm53 0l0 0 0 0 -52 0 0 0 52 0zm0 0l0 0 0 0 0 0zm0 56l0 0 0 0 0 -56 0 0 0 56zm0 0l0 0 0 0 0 0zm-53 0l0 0 0 0 53 0 0 0 -53 0zm0 0l0 0 0 0 0 0zm0 -10l0 0 0 0 0 10 0 0 0 -10zm0 0l0 0 0 0 0 0zm-5 -4l0 0 0 0 5 4 0 0 -5 -4zm0 0l0 0 0 0 0 0zm0 -25l0 0 0 0 0 24 0 0 0 -24zm0 0l0 0 0 0 0 0zm5 -6l0 0 0 0 -5 6 0 0 5 -6zm0 0l0 0 0 0 0 0z"/>
  </g>
  <polygon class="fil1 str0" points="773,449 773,408 721,408 721,418 716,422 716,449 "/>
  <g>
   <path class="fil0" d="M646 408l0 0 0 0 0 38 0 0 0 -38zm0 0l0 0 0 0 0 0zm51 0l0 0 0 0 -51 0 0 0 51 0zm0 0l0 0 0 0 0 0zm0 10l0 0 0 0 0 -10 0 0 0 10zm0 0l0 0 0 0 0 0zm5 4l0 0 0 0 -5 -4 0 0 5 4zm0 0l0 0 0 0 0 0zm0 24l0 0 0 0 0 -24 0 0 0 24zm0 0l0 0 0 0 0 0zm-56 0l0 0 0 0 56 0 0 0 -56 0zm0 0l0 0 0 0 0 0z"/>
  </g>
  <g>
   <path class="fil0" d="M646 408l0 54 0 0 0 -54 0 0 0 0zm0 0l0 0 0 0 0 0zm-53 0l53 0 0 0 -53 0 0 0 0 0zm0 0l0 0 0 0 0 0zm0 10l0 -10 0 0 0 10 0 0 0 0zm0 0l0 0 0 0 0 0zm-5 4l5 -4 0 0 -5 4 0 0 0 0zm0 0l0 0 0 0 0 0zm0 29l0 -29 0 0 0 29 0 0 0 0zm0 0l0 0 0 0 0 0zm6 4l-6 -4 0 0 6 4 0 0 0 0zm0 0l0 0 0 0 0 0zm0 11l0 -11 0 0 0 11 0 0 0 0zm0 0l0 0 0 0 0 0zm31 0l-31 0 0 0 31 0 0 0 0 0zm0 0l0 0 0 0 0 0zm0 -5l0 5 0 0 0 -5 0 0 0 0zm0 0l0 0 0 0 0 0zm22 0l-21 0 0 0 21 0 0 0 0 0zm0 0l0 0 0 0 0 0z"/>
  </g>
  <polygon class="fil1 str0" points="382,145 403,145 403,126 382,126 "/>
  <polygon class="fil1 str0" points="366,145 403,145 403,191 366,191 "/>
  <polygon class="fil1 str0" points="445,126 403,126 403,191 445,191 "/>
  <polygon class="fil1 str0" points="445,235 404,235 402,239 396,239 396,191 445,191 "/>
  <polygon class="fil1 str0" points="445,235 404,235 402,239 402,277 445,277 "/>
  <polygon class="fil1 str0" points="353,277 402,277 402,239 396,239 396,191 366,191 366,236 353,236 "/>
  <polygon class="fil1 str0" points="365,220 352,220 352,145 352,126 382,126 382,145 365,145 "/>
  <g>
   <path class="fil0" d="M352 220l0 0 0 0 13 0 0 0 -13 0zm0 0l0 0 0 0 0 0zm0 17l0 0 0 0 0 -17 0 0 0 17zm0 0l0 0 0 0 0 0zm13 0l0 0 0 0 -13 0 0 0 13 0zm0 0l0 0 0 0 0 0zm0 -17l0 0 0 0 0 17 0 0 0 -17zm0 0l0 0 0 0 0 0z"/>
  </g>
  <polygon class="fil1 str0" points="208,147 263,147 263,107 208,107 "/>
  <g>
   <path class="fil0" d="M227 147l0 0 0 0 -20 0 0 0 20 0zm0 0l0 0 0 0 0 0zm0 16l0 0 0 0 0 -16 0 0 0 16zm0 0l0 0 0 0 0 0zm-20 0l0 0 0 0 20 0 0 0 -20 0zm0 0l0 0 0 0 0 0zm0 -16l0 0 0 0 0 16 0 0 0 -16zm0 0l0 0 0 0 0 0z"/>
  </g>
  <g>
   <path class="fil0" d="M227 179l-20 0 0 0 20 0 0 0 0 0zm0 0l0 0 0 0 0 0zm0 -16l0 16 0 0 0 -16 0 0 0 0zm0 0l0 0 0 0 0 0zm-20 0l20 0 0 0 -20 0 0 0 0 0zm0 0l0 0 0 0 0 0zm0 16l0 -16 0 0 0 16 0 0 0 0zm0 0l0 0 0 0 0 0z"/>
  </g>
  <g>
   <path class="fil0" d="M227 172l0 0 0 0 47 0 0 0 -47 0zm0 0l0 0 0 0 0 0zm0 -26l0 0 0 0 0 25 0 0 0 -25zm0 0l0 0 0 0 0 0zm47 0l0 0 0 0 -47 0 0 0 47 0zm0 0l0 0 0 0 0 0zm0 26l0 0 0 0 0 -25 0 0 0 25zm0 0l0 0 0 0 0 0z"/>
  </g>
  <g>
   <path class="fil0" d="M240 172l34 0 0 0 -34 0 0 0 0 0zm0 0l0 0 0 0 0 0zm0 20l0 -20 0 0 0 20 0 0 0 0zm0 0l0 0 0 0 0 0zm34 0l-34 0 0 0 34 0 0 0 0 0zm0 0l0 0 0 0 0 0zm0 -20l0 20 0 0 0 -20 0 0 0 0zm0 0l0 0 0 0 0 0z"/>
  </g>
  <g>
   <path class="fil0" d="M240 211l0 0 0 0 34 0 0 0 -34 0zm0 0l0 0 0 0 0 0zm0 -18l0 0 0 0 0 18 0 0 0 -18zm0 0l0 0 0 0 0 0zm34 0l0 0 0 0 -34 0 0 0 34 0zm0 0l0 0 0 0 0 0zm0 18l0 0 0 0 0 -18 0 0 0 18zm0 0l0 0 0 0 0 0z"/>
  </g>
  <g>
   <path class="fil0" d="M233 211l-26 0 0 0 26 0 0 0 0 0zm0 0l0 0 0 0 0 0zm0 -17l0 17 0 0 0 -17 0 0 0 0zm0 0l0 0 0 0 0 0zm-26 0l26 0 0 0 -26 0 0 0 0 0zm0 0l0 0 0 0 0 0zm0 17l0 -17 0 0 0 17 0 0 0 0zm0 0l0 0 0 0 0 0z"/>
  </g>
  <g>
   <path class="fil0" d="M233 210l0 0 0 0 -26 0 0 0 26 0zm0 0l0 0 0 0 0 0zm0 15l0 0 0 0 0 -14 0 0 0 14zm0 0l0 0 0 0 0 0zm-26 0l0 0 0 0 26 0 0 0 -26 0zm0 0l0 0 0 0 0 0zm0 -15l0 0 0 0 0 14 0 0 0 -14zm0 0l0 0 0 0 0 0z"/>
  </g>
  <polygon class="fil1 str0" points="208,147 274,147 274,268 264,277 208,277 "/>
  <polygon class="fil1 str0" points="353,147 287,147 287,268 296,277 353,277 "/>
  <polygon class="fil1 str0" points="208,340 272,340 272,302 262,292 208,292 "/>
  <polygon class="fil1 str0" points="352,340 287,340 287,304 298,292 352,292 "/>
  <polygon class="fil1 str0" points="352,342 415,342 415,292 352,292 "/>
  <polygon class="fil1 str0" points="499,342 431,342 431,292 499,292 "/>
  <polygon class="fil1 str0" points="499,342 431,342 431,436 499,436 "/>
  <polygon class="fil1 str0" points="499,482 431,482 431,436 499,436 "/>
  <polygon class="fil1 str0" points="499,482 431,482 431,530 499,530 "/>
  <polygon class="fil1 str0" points="352,342 415,342 415,387 352,387 "/>
  <polygon class="fil1 str0" points="352,436 415,436 415,387 352,387 "/>
  <polygon class="fil1 str0" points="352,436 415,436 415,478 352,478 "/>
  <polygon class="fil1 str0" points="352,530 415,530 415,478 352,478 "/>
  <polygon class="fil1 str0" points="352,340 287,340 287,395 352,395 "/>
  <polygon class="fil1 str0" points="352,435 287,435 287,395 352,395 "/>
  <polygon class="fil1 str0" points="352,435 287,435 287,479 352,479 "/>
  <polygon class="fil1 str0" points="352,530 295,530 287,523 287,479 352,479 "/>
  <polygon class="fil1 str0" points="352,548 297,548 287,557 287,586 352,586 "/>
  <g>
   <polygon class="fil2 str1" points="352,548 407,548 417,557 417,586 352,586 "/>
  </g>
  <polygon class="fil1 str0" points="496,625 441,625 431,615 431,586 431,557 441,548 496,548 496,586 "/>
  <g>
   <polygon class="fil2 str1" points="496,625 558,625 558,548 496,548 496,586 "/>
  </g>
  <polygon class="fil1 str0" points="558,625 614,625 624,615 624,586 624,557 614,548 558,548 558,586 "/>
  <polygon class="fil1 str0" points="352,625 297,625 287,615 287,586 352,586 "/>
  <polygon class="fil1 str0" points="352,625 407,625 417,615 417,586 352,586 "/>
  <polygon class="fil1 str0" points="208,340 272,340 272,388 208,388 "/>
  <polygon class="fil1 str0" points="208,436 272,436 272,388 208,388 "/>
  <polygon class="fil1 str0" points="208,436 272,436 272,483 208,483 "/>
  <polygon class="fil1 str0" points="208,530 264,530 272,523 272,483 208,483 "/>
  <polygon class="fil1 str0" points="208,548 265,548 272,556 272,571 208,571 "/>
  <polygon class="fil1 str0" points="208,625 265,625 272,618 272,571 208,571 "/>
  <polygon class="fil1 str0" points="513,293 572,293 572,328 513,328 "/>
  <polygon class="fil1 str0" points="513,362 572,362 572,328 513,328 "/>
  <polygon class="fil1 str0" points="513,362 572,362 572,396 513,396 "/>
  <polygon class="fil1 str0" points="513,430 572,430 572,396 513,396 "/>
  <polygon class="fil1 str0" points="513,430 572,430 572,464 513,464 "/>
  <polygon class="fil1 str0" points="513,530 562,530 562,483 513,483 "/>
  <polygon class="fil1 str0" points="622,530 562,530 562,483 622,483 "/>
  <polygon class="fil1 str0" points="638,530 702,530 702,483 638,483 "/>
  <polygon class="fil1 str0" points="733,514 702,514 702,483 733,483 "/>
  <polygon class="fil1 str0" points="742,531 774,531 774,483 742,483 "/>
  <polygon class="fil1 str0" points="742,531 774,531 774,581 742,581 "/>
  <polygon class="fil1 str0" points="742,628 774,628 774,581 742,581 "/>
  <polygon class="fil1 str0" points="742,628 774,628 774,659 742,659 "/>
  <polygon class="fil1 str0" points="719,692 774,692 774,659 719,659 "/>
  <polygon class="fil1 str0" points="703,692 683,692 683,643 703,643 "/>
  <polygon class="fil1 str0" points="638,692 683,692 683,643 638,643 "/>
  <polygon class="fil1 str0" points="638,692 591,692 591,643 638,643 "/>
  <polygon class="fil1 str0" points="543,692 591,692 591,643 543,643 "/>
  <polygon class="fil1 str0" points="543,692 495,692 495,643 543,643 "/>
  <polygon class="fil1 str0" points="400,692 447,692 447,651 400,651 "/>
  <polygon class="fil1 str0" points="400,692 367,692 367,651 400,651 "/>
  <polygon class="fil1 str0" points="352,692 367,692 367,651 352,651 "/>
  <polygon class="fil1 str0" points="352,772 447,772 447,731 352,731 "/>
  <polygon class="fil1 str0" points="304,754 254,754 254,729 304,729 "/>
  <polygon class="fil1 str0" points="124,773 245,773 245,729 144,729 124,749 "/>
  <polygon class="fil1 str0" points="304,745 321,745 321,729 304,729 "/>
  <polygon class="fil1 str0" points="304,745 321,745 321,763 304,763 "/>
  <polygon class="fil1 str0" points="336,742 321,742 321,729 336,729 "/>
  <polygon class="fil1 str0" points="336,742 321,742 321,753 336,753 "/>
  <polygon class="fil1 str0" points="336,763 321,763 321,753 336,753 "/>
  <polygon class="fil1 str0" points="304,754 254,754 254,772 304,772 "/>
  <polygon class="fil1 str0" points="526,772 455,772 455,731 503,731 503,724 526,724 "/>
  <polygon class="fil1 str0" points="526,772 423,772 423,835 526,835 "/>
  <polygon class="fil1 str0" points="404,785 423,785 423,843 404,843 "/>
  <polygon class="fil1 str0" points="404,785 353,785 353,835 404,835 "/>
  <polygon class="fil1 str0" points="273,785 353,785 353,835 273,835 "/>
  <polygon class="fil1 str0" points="273,785 170,785 170,835 273,835 "/>
  <polygon class="fil1 str0" points="128,785 170,785 170,835 128,835 "/>
  <polygon class="fil1 str0" points="128,785 102,785 102,835 128,835 "/>
  <polygon class="fil1 str0" points="51,818 33,800 12,821 12,825 51,825 "/>
  <polygon class="fil1 str0" points="31,843 25,843 25,840 12,840 12,825 31,825 "/>
  <g>
   <polygon class="fil2 str1" points="31,843 51,843 51,825 31,825 "/>
  </g>
  <polygon class="fil1 str0" points="309,665 296,665 296,651 309,651 "/>
  <polygon class="fil1 str0" points="255,665 277,665 277,651 255,651 "/>
  <polygon class="fil1 str0" points="255,665 223,665 223,651 255,651 "/>
  <polygon class="fil1 str0" points="255,665 208,665 208,691 255,691 "/>
  <polygon class="fil1 str0" points="227,713 208,713 208,691 227,691 "/>
  <polygon class="fil1 str0" points="227,713 271,713 271,691 227,691 "/>
  <polygon class="fil1 str0" points="337,713 286,713 286,691 337,691 "/>
  <polygon class="fil1 str0" points="336,665 309,665 309,651 336,651 "/>
  <polygon class="fil1 str0" points="336,665 297,665 297,687 336,687 "/>
  <polygon class="fil1 str0" points="447,692 495,692 495,643 455,643 447,651 "/>
  <polygon class="fil1 str0" points="638,530 702,530 702,579 638,579 "/>
  <polygon class="fil1 str0" points="638,626 676,626 676,579 638,579 "/>
  <polygon class="fil1 str0" points="702,626 676,626 676,579 702,579 "/>
  <polygon class="fil1 str0" points="702,626 734,626 734,595 702,595 "/>
  <polygon class="fil1 str0" points="719,626 734,626 734,638 719,638 "/>
  <polygon class="fil1 str0" points="719,650 734,650 734,638 719,638 "/>
  <polygon class="fil1 str0" points="702,575 734,575 734,595 702,595 "/>
  <polygon class="fil1 str0" points="702,575 734,575 734,545 702,545 "/>
  <polygon class="fil1 str0" points="702,515 734,515 734,545 702,545 "/>
  <polygon class="fil1 str0" points="1,757 136,620 163,646 162,680 57,786 18,786 3,801 1,800 "/>
  <polygon class="fil1 str0" points="1,757 15,743 57,786 18,786 3,801 1,800 "/>
  <polygon class="fil1 str0" points="29,758 50,736 78,764 57,786 "/>
  <polygon class="fil1 str0" points="15,743 36,721 50,736 29,758 "/>
  <polygon class="fil1 str0" points="50,707 36,721 48,734 58,724 58,715 "/>
  <polygon class="fil1 str0" points="50,707 69,688 83,701 69,715 58,715 "/>
  <polygon class="fil1 str0" points="88,669 69,688 112,730 130,712 "/>
  <polygon class="fil1 str0" points="88,669 136,620 163,646 162,680 130,712 "/>
  <polygon class="fil1 str0" points="74,711 83,701 95,713 85,722 74,723 "/>
  <polygon class="fil1 str0" points="91,752 112,730 95,713 85,722 85,746 "/>
  <polygon class="fil1 str0" points="91,752 78,764 68,754 76,745 85,746 "/>
  <polygon class="fil1 str0" points="68,729 55,741 68,754 76,745 76,737 "/>
  <rect class="fil1 str0" x="677" y="784" width="26" height="48"/>
  <polygon class="fil1 str0" points="156,600 182,625 208,625 182,625 "/>
  <polyline class="fil1 str0" points="51,823 57,823 57,813 87,785 92,780 87,785 102,785 "/>
  <line class="fil1 str0" x1="110" y1="762" x2="101" y2= "771" />
  <polygon class="fil1 str2" points="182,624 208,624 208,1 327,1 327,40 263,40 263,147 353,147 352,76 375,76 375,70 414,70 414,76 446,76 446,64 455,64 456,76 491,76 496,109 496,125 773,125 773,834 526,834 423,834 423,842 404,842 404,834 102,834 102,784 87,784 57,812 57,822 51,822 51,834 51,842 25,842 25,839 12,839 12,820 1,799 1,756 136,620 156,600 "/>
 </g>
</svg>
